-- Merging decision tree log ---
manifest
ADDED from E:\02. DEVELOPMENT\04. PRODUCTION\PPSU\Mobile\platforms\android\app\src\main\AndroidManifest.xml:2:1-43:12
INJECTED from E:\02. DEVELOPMENT\04. PRODUCTION\PPSU\Mobile\platforms\android\app\src\main\AndroidManifest.xml:2:1-43:12
INJECTED from E:\02. DEVELOPMENT\04. PRODUCTION\PPSU\Mobile\platforms\android\app\src\main\AndroidManifest.xml:2:1-43:12
INJECTED from E:\02. DEVELOPMENT\04. PRODUCTION\PPSU\Mobile\platforms\android\app\src\main\AndroidManifest.xml:2:1-43:12
MERGED from [com.google.android.gms:play-services-location:11.4.0] C:\Users\Lunov\.gradle\caches\transforms-1\files-1.1\play-services-location-11.4.0.aar\1239d9135dafc6d171ca82d98d76c9f1\AndroidManifest.xml:2:1-5:12
MERGED from [com.android.support:design:25.3.1] C:\Users\Lunov\.gradle\caches\transforms-1\files-1.1\design-25.3.1.aar\770d8e83e158fd3be41a0b661007e8f0\AndroidManifest.xml:17:1-31:12
MERGED from [com.android.support:multidex:1.0.2] C:\Users\Lunov\.gradle\caches\transforms-1\files-1.1\multidex-1.0.2.aar\bf2cbb8072ddae1fcfa14f05417795fb\AndroidManifest.xml:17:1-22:12
MERGED from [com.android.support:appcompat-v7:25.3.1] C:\Users\Lunov\.gradle\caches\transforms-1\files-1.1\appcompat-v7-25.3.1.aar\bfac1bd0826196c69983c78821098f97\AndroidManifest.xml:17:1-31:12
MERGED from [com.google.android.gms:play-services-base:11.4.0] C:\Users\Lunov\.gradle\caches\transforms-1\files-1.1\play-services-base-11.4.0.aar\3ef35a8197f524a78d4ac6972deb0419\AndroidManifest.xml:16:1-21:12
MERGED from [com.google.android.gms:play-services-tasks:11.4.0] C:\Users\Lunov\.gradle\caches\transforms-1\files-1.1\play-services-tasks-11.4.0.aar\4c2342436f57e02d5d038b912e196103\AndroidManifest.xml:2:1-5:12
MERGED from [com.google.android.gms:play-services-basement:11.4.0] C:\Users\Lunov\.gradle\caches\transforms-1\files-1.1\play-services-basement-11.4.0.aar\f293b40cbfc3f850e727bb12c0de22c2\AndroidManifest.xml:16:1-23:12
MERGED from [com.android.support:transition:25.3.1] C:\Users\Lunov\.gradle\caches\transforms-1\files-1.1\transition-25.3.1.aar\4bbc892fce75ce835682d87957a1af0c\AndroidManifest.xml:17:1-28:12
MERGED from [com.android.support:support-v4:25.3.1] C:\Users\Lunov\.gradle\caches\transforms-1\files-1.1\support-v4-25.3.1.aar\07434708b3f010b66b47fddfdc286a2a\AndroidManifest.xml:17:1-31:12
MERGED from [:nativescript-optimized-with-inspector:] C:\Users\Lunov\.gradle\caches\transforms-1\files-1.1\nativescript-optimized-with-inspector.aar\cd8a0845c7381c9ee02c278b357fce12\AndroidManifest.xml:2:1-11:12
MERGED from [:nativescript_geolocation:] C:\Users\Lunov\.gradle\caches\transforms-1\files-1.1\nativescript_geolocation.aar\37c4ad5034be7c7ed672fbe69098149b\AndroidManifest.xml:2:1-11:12
MERGED from [:widgets-release:] C:\Users\Lunov\.gradle\caches\transforms-1\files-1.1\widgets-release.aar\1ecc8373bfe8382671c22ff8e90ee658\AndroidManifest.xml:2:1-14:12
MERGED from [com.android.support:recyclerview-v7:25.3.1] C:\Users\Lunov\.gradle\caches\transforms-1\files-1.1\recyclerview-v7-25.3.1.aar\7b5386278ef01a35facb59d1ab2cc29d\AndroidManifest.xml:17:1-26:12
MERGED from [com.android.support:support-fragment:25.3.1] C:\Users\Lunov\.gradle\caches\transforms-1\files-1.1\support-fragment-25.3.1.aar\f83a19f5c6920d74b4184b3b7b2bdeff\AndroidManifest.xml:17:1-31:12
MERGED from [com.android.support:support-core-ui:25.3.1] C:\Users\Lunov\.gradle\caches\transforms-1\files-1.1\support-core-ui-25.3.1.aar\b7e0c8a7b889639b66bba9615a46e440\AndroidManifest.xml:17:1-31:12
MERGED from [com.android.support:animated-vector-drawable:25.3.1] C:\Users\Lunov\.gradle\caches\transforms-1\files-1.1\animated-vector-drawable-25.3.1.aar\1f9b4a403f8f75441bbec701bdc0ea18\AndroidManifest.xml:17:1-28:12
MERGED from [com.android.support:support-vector-drawable:25.3.1] C:\Users\Lunov\.gradle\caches\transforms-1\files-1.1\support-vector-drawable-25.3.1.aar\ba42d5b621d4428d12bd9fef62ddb8bf\AndroidManifest.xml:17:1-28:12
MERGED from [com.android.support:support-media-compat:25.3.1] C:\Users\Lunov\.gradle\caches\transforms-1\files-1.1\support-media-compat-25.3.1.aar\c502b4139eed9c05b4395325138d2e22\AndroidManifest.xml:17:1-31:12
MERGED from [com.android.support:support-core-utils:25.3.1] C:\Users\Lunov\.gradle\caches\transforms-1\files-1.1\support-core-utils-25.3.1.aar\867d6280cfba4c64459a37a87e8994b8\AndroidManifest.xml:17:1-31:12
MERGED from [com.android.support:support-compat:25.3.1] C:\Users\Lunov\.gradle\caches\transforms-1\files-1.1\support-compat-25.3.1.aar\7dc240902131a15eab6b25d837a363af\AndroidManifest.xml:17:1-31:12
INJECTED from E:\02. DEVELOPMENT\04. PRODUCTION\PPSU\Mobile\platforms\android\app\src\main\AndroidManifest.xml:2:1-43:12
INJECTED from E:\02. DEVELOPMENT\04. PRODUCTION\PPSU\Mobile\platforms\android\app\src\main\AndroidManifest.xml:2:1-43:12
INJECTED from E:\02. DEVELOPMENT\04. PRODUCTION\PPSU\Mobile\platforms\android\app\src\main\AndroidManifest.xml:2:1-43:12
	package
		ADDED from E:\02. DEVELOPMENT\04. PRODUCTION\PPSU\Mobile\platforms\android\app\src\main\AndroidManifest.xml:3:2-33
		INJECTED from E:\02. DEVELOPMENT\04. PRODUCTION\PPSU\Mobile\platforms\android\app\src\main\AndroidManifest.xml
		INJECTED from E:\02. DEVELOPMENT\04. PRODUCTION\PPSU\Mobile\platforms\android\app\src\main\AndroidManifest.xml
	android:versionName
		ADDED from E:\02. DEVELOPMENT\04. PRODUCTION\PPSU\Mobile\platforms\android\app\src\main\AndroidManifest.xml:5:2-27
		INJECTED from E:\02. DEVELOPMENT\04. PRODUCTION\PPSU\Mobile\platforms\android\app\src\main\AndroidManifest.xml
		INJECTED from E:\02. DEVELOPMENT\04. PRODUCTION\PPSU\Mobile\platforms\android\app\src\main\AndroidManifest.xml
	xmlns:android
		ADDED from E:\02. DEVELOPMENT\04. PRODUCTION\PPSU\Mobile\platforms\android\app\src\main\AndroidManifest.xml:2:11-69
	android:versionCode
		ADDED from E:\02. DEVELOPMENT\04. PRODUCTION\PPSU\Mobile\platforms\android\app\src\main\AndroidManifest.xml:4:2-25
		INJECTED from E:\02. DEVELOPMENT\04. PRODUCTION\PPSU\Mobile\platforms\android\app\src\main\AndroidManifest.xml
		INJECTED from E:\02. DEVELOPMENT\04. PRODUCTION\PPSU\Mobile\platforms\android\app\src\main\AndroidManifest.xml
supports-screens
ADDED from E:\02. DEVELOPMENT\04. PRODUCTION\PPSU\Mobile\platforms\android\app\src\main\AndroidManifest.xml:7:2-11:33
	android:largeScreens
		ADDED from E:\02. DEVELOPMENT\04. PRODUCTION\PPSU\Mobile\platforms\android\app\src\main\AndroidManifest.xml:10:3-30
	android:smallScreens
		ADDED from E:\02. DEVELOPMENT\04. PRODUCTION\PPSU\Mobile\platforms\android\app\src\main\AndroidManifest.xml:8:3-30
	android:normalScreens
		ADDED from E:\02. DEVELOPMENT\04. PRODUCTION\PPSU\Mobile\platforms\android\app\src\main\AndroidManifest.xml:9:3-31
	android:xlargeScreens
		ADDED from E:\02. DEVELOPMENT\04. PRODUCTION\PPSU\Mobile\platforms\android\app\src\main\AndroidManifest.xml:11:3-31
uses-sdk
ADDED from E:\02. DEVELOPMENT\04. PRODUCTION\PPSU\Mobile\platforms\android\app\src\main\AndroidManifest.xml:13:2-15:34
INJECTED from E:\02. DEVELOPMENT\04. PRODUCTION\PPSU\Mobile\platforms\android\app\src\main\AndroidManifest.xml:13:2-15:34
INJECTED from E:\02. DEVELOPMENT\04. PRODUCTION\PPSU\Mobile\platforms\android\app\src\main\AndroidManifest.xml:13:2-15:34
MERGED from [com.google.android.gms:play-services-location:11.4.0] C:\Users\Lunov\.gradle\caches\transforms-1\files-1.1\play-services-location-11.4.0.aar\1239d9135dafc6d171ca82d98d76c9f1\AndroidManifest.xml:3:5-43
MERGED from [com.google.android.gms:play-services-location:11.4.0] C:\Users\Lunov\.gradle\caches\transforms-1\files-1.1\play-services-location-11.4.0.aar\1239d9135dafc6d171ca82d98d76c9f1\AndroidManifest.xml:3:5-43
MERGED from [com.android.support:design:25.3.1] C:\Users\Lunov\.gradle\caches\transforms-1\files-1.1\design-25.3.1.aar\770d8e83e158fd3be41a0b661007e8f0\AndroidManifest.xml:21:5-23:62
MERGED from [com.android.support:design:25.3.1] C:\Users\Lunov\.gradle\caches\transforms-1\files-1.1\design-25.3.1.aar\770d8e83e158fd3be41a0b661007e8f0\AndroidManifest.xml:21:5-23:62
MERGED from [com.android.support:multidex:1.0.2] C:\Users\Lunov\.gradle\caches\transforms-1\files-1.1\multidex-1.0.2.aar\bf2cbb8072ddae1fcfa14f05417795fb\AndroidManifest.xml:20:5-43
MERGED from [com.android.support:multidex:1.0.2] C:\Users\Lunov\.gradle\caches\transforms-1\files-1.1\multidex-1.0.2.aar\bf2cbb8072ddae1fcfa14f05417795fb\AndroidManifest.xml:20:5-43
MERGED from [com.android.support:appcompat-v7:25.3.1] C:\Users\Lunov\.gradle\caches\transforms-1\files-1.1\appcompat-v7-25.3.1.aar\bfac1bd0826196c69983c78821098f97\AndroidManifest.xml:21:5-23:78
MERGED from [com.android.support:appcompat-v7:25.3.1] C:\Users\Lunov\.gradle\caches\transforms-1\files-1.1\appcompat-v7-25.3.1.aar\bfac1bd0826196c69983c78821098f97\AndroidManifest.xml:21:5-23:78
MERGED from [com.google.android.gms:play-services-base:11.4.0] C:\Users\Lunov\.gradle\caches\transforms-1\files-1.1\play-services-base-11.4.0.aar\3ef35a8197f524a78d4ac6972deb0419\AndroidManifest.xml:17:5-43
MERGED from [com.google.android.gms:play-services-base:11.4.0] C:\Users\Lunov\.gradle\caches\transforms-1\files-1.1\play-services-base-11.4.0.aar\3ef35a8197f524a78d4ac6972deb0419\AndroidManifest.xml:17:5-43
MERGED from [com.google.android.gms:play-services-tasks:11.4.0] C:\Users\Lunov\.gradle\caches\transforms-1\files-1.1\play-services-tasks-11.4.0.aar\4c2342436f57e02d5d038b912e196103\AndroidManifest.xml:3:5-43
MERGED from [com.google.android.gms:play-services-tasks:11.4.0] C:\Users\Lunov\.gradle\caches\transforms-1\files-1.1\play-services-tasks-11.4.0.aar\4c2342436f57e02d5d038b912e196103\AndroidManifest.xml:3:5-43
MERGED from [com.google.android.gms:play-services-basement:11.4.0] C:\Users\Lunov\.gradle\caches\transforms-1\files-1.1\play-services-basement-11.4.0.aar\f293b40cbfc3f850e727bb12c0de22c2\AndroidManifest.xml:17:5-43
MERGED from [com.google.android.gms:play-services-basement:11.4.0] C:\Users\Lunov\.gradle\caches\transforms-1\files-1.1\play-services-basement-11.4.0.aar\f293b40cbfc3f850e727bb12c0de22c2\AndroidManifest.xml:17:5-43
MERGED from [com.android.support:transition:25.3.1] C:\Users\Lunov\.gradle\caches\transforms-1\files-1.1\transition-25.3.1.aar\4bbc892fce75ce835682d87957a1af0c\AndroidManifest.xml:20:5-44
MERGED from [com.android.support:transition:25.3.1] C:\Users\Lunov\.gradle\caches\transforms-1\files-1.1\transition-25.3.1.aar\4bbc892fce75ce835682d87957a1af0c\AndroidManifest.xml:20:5-44
MERGED from [com.android.support:support-v4:25.3.1] C:\Users\Lunov\.gradle\caches\transforms-1\files-1.1\support-v4-25.3.1.aar\07434708b3f010b66b47fddfdc286a2a\AndroidManifest.xml:21:5-23:54
MERGED from [com.android.support:support-v4:25.3.1] C:\Users\Lunov\.gradle\caches\transforms-1\files-1.1\support-v4-25.3.1.aar\07434708b3f010b66b47fddfdc286a2a\AndroidManifest.xml:21:5-23:54
MERGED from [:nativescript-optimized-with-inspector:] C:\Users\Lunov\.gradle\caches\transforms-1\files-1.1\nativescript-optimized-with-inspector.aar\cd8a0845c7381c9ee02c278b357fce12\AndroidManifest.xml:7:5-9:41
MERGED from [:nativescript-optimized-with-inspector:] C:\Users\Lunov\.gradle\caches\transforms-1\files-1.1\nativescript-optimized-with-inspector.aar\cd8a0845c7381c9ee02c278b357fce12\AndroidManifest.xml:7:5-9:41
MERGED from [:nativescript_geolocation:] C:\Users\Lunov\.gradle\caches\transforms-1\files-1.1\nativescript_geolocation.aar\37c4ad5034be7c7ed672fbe69098149b\AndroidManifest.xml:7:5-47
MERGED from [:nativescript_geolocation:] C:\Users\Lunov\.gradle\caches\transforms-1\files-1.1\nativescript_geolocation.aar\37c4ad5034be7c7ed672fbe69098149b\AndroidManifest.xml:7:5-47
MERGED from [:widgets-release:] C:\Users\Lunov\.gradle\caches\transforms-1\files-1.1\widgets-release.aar\1ecc8373bfe8382671c22ff8e90ee658\AndroidManifest.xml:7:5-9:41
MERGED from [:widgets-release:] C:\Users\Lunov\.gradle\caches\transforms-1\files-1.1\widgets-release.aar\1ecc8373bfe8382671c22ff8e90ee658\AndroidManifest.xml:7:5-9:41
MERGED from [com.android.support:recyclerview-v7:25.3.1] C:\Users\Lunov\.gradle\caches\transforms-1\files-1.1\recyclerview-v7-25.3.1.aar\7b5386278ef01a35facb59d1ab2cc29d\AndroidManifest.xml:20:5-43
MERGED from [com.android.support:recyclerview-v7:25.3.1] C:\Users\Lunov\.gradle\caches\transforms-1\files-1.1\recyclerview-v7-25.3.1.aar\7b5386278ef01a35facb59d1ab2cc29d\AndroidManifest.xml:20:5-43
MERGED from [com.android.support:support-fragment:25.3.1] C:\Users\Lunov\.gradle\caches\transforms-1\files-1.1\support-fragment-25.3.1.aar\f83a19f5c6920d74b4184b3b7b2bdeff\AndroidManifest.xml:21:5-23:60
MERGED from [com.android.support:support-fragment:25.3.1] C:\Users\Lunov\.gradle\caches\transforms-1\files-1.1\support-fragment-25.3.1.aar\f83a19f5c6920d74b4184b3b7b2bdeff\AndroidManifest.xml:21:5-23:60
MERGED from [com.android.support:support-core-ui:25.3.1] C:\Users\Lunov\.gradle\caches\transforms-1\files-1.1\support-core-ui-25.3.1.aar\b7e0c8a7b889639b66bba9615a46e440\AndroidManifest.xml:21:5-23:58
MERGED from [com.android.support:support-core-ui:25.3.1] C:\Users\Lunov\.gradle\caches\transforms-1\files-1.1\support-core-ui-25.3.1.aar\b7e0c8a7b889639b66bba9615a46e440\AndroidManifest.xml:21:5-23:58
MERGED from [com.android.support:animated-vector-drawable:25.3.1] C:\Users\Lunov\.gradle\caches\transforms-1\files-1.1\animated-vector-drawable-25.3.1.aar\1f9b4a403f8f75441bbec701bdc0ea18\AndroidManifest.xml:20:5-44
MERGED from [com.android.support:animated-vector-drawable:25.3.1] C:\Users\Lunov\.gradle\caches\transforms-1\files-1.1\animated-vector-drawable-25.3.1.aar\1f9b4a403f8f75441bbec701bdc0ea18\AndroidManifest.xml:20:5-44
MERGED from [com.android.support:support-vector-drawable:25.3.1] C:\Users\Lunov\.gradle\caches\transforms-1\files-1.1\support-vector-drawable-25.3.1.aar\ba42d5b621d4428d12bd9fef62ddb8bf\AndroidManifest.xml:20:5-43
MERGED from [com.android.support:support-vector-drawable:25.3.1] C:\Users\Lunov\.gradle\caches\transforms-1\files-1.1\support-vector-drawable-25.3.1.aar\ba42d5b621d4428d12bd9fef62ddb8bf\AndroidManifest.xml:20:5-43
MERGED from [com.android.support:support-media-compat:25.3.1] C:\Users\Lunov\.gradle\caches\transforms-1\files-1.1\support-media-compat-25.3.1.aar\c502b4139eed9c05b4395325138d2e22\AndroidManifest.xml:21:5-23:63
MERGED from [com.android.support:support-media-compat:25.3.1] C:\Users\Lunov\.gradle\caches\transforms-1\files-1.1\support-media-compat-25.3.1.aar\c502b4139eed9c05b4395325138d2e22\AndroidManifest.xml:21:5-23:63
MERGED from [com.android.support:support-core-utils:25.3.1] C:\Users\Lunov\.gradle\caches\transforms-1\files-1.1\support-core-utils-25.3.1.aar\867d6280cfba4c64459a37a87e8994b8\AndroidManifest.xml:21:5-23:61
MERGED from [com.android.support:support-core-utils:25.3.1] C:\Users\Lunov\.gradle\caches\transforms-1\files-1.1\support-core-utils-25.3.1.aar\867d6280cfba4c64459a37a87e8994b8\AndroidManifest.xml:21:5-23:61
MERGED from [com.android.support:support-compat:25.3.1] C:\Users\Lunov\.gradle\caches\transforms-1\files-1.1\support-compat-25.3.1.aar\7dc240902131a15eab6b25d837a363af\AndroidManifest.xml:21:5-23:58
MERGED from [com.android.support:support-compat:25.3.1] C:\Users\Lunov\.gradle\caches\transforms-1\files-1.1\support-compat-25.3.1.aar\7dc240902131a15eab6b25d837a363af\AndroidManifest.xml:21:5-23:58
INJECTED from E:\02. DEVELOPMENT\04. PRODUCTION\PPSU\Mobile\platforms\android\app\src\main\AndroidManifest.xml:13:2-15:34
INJECTED from E:\02. DEVELOPMENT\04. PRODUCTION\PPSU\Mobile\platforms\android\app\src\main\AndroidManifest.xml:13:2-15:34
	tools:overrideLibrary
		ADDED from [com.android.support:design:25.3.1] C:\Users\Lunov\.gradle\caches\transforms-1\files-1.1\design-25.3.1.aar\770d8e83e158fd3be41a0b661007e8f0\AndroidManifest.xml:23:9-59
	android:targetSdkVersion
		ADDED from E:\02. DEVELOPMENT\04. PRODUCTION\PPSU\Mobile\platforms\android\app\src\main\AndroidManifest.xml:15:3-32
		INJECTED from E:\02. DEVELOPMENT\04. PRODUCTION\PPSU\Mobile\platforms\android\app\src\main\AndroidManifest.xml
		INJECTED from E:\02. DEVELOPMENT\04. PRODUCTION\PPSU\Mobile\platforms\android\app\src\main\AndroidManifest.xml
	android:minSdkVersion
		ADDED from E:\02. DEVELOPMENT\04. PRODUCTION\PPSU\Mobile\platforms\android\app\src\main\AndroidManifest.xml:14:3-29
		INJECTED from E:\02. DEVELOPMENT\04. PRODUCTION\PPSU\Mobile\platforms\android\app\src\main\AndroidManifest.xml
		MERGED from E:\02. DEVELOPMENT\04. PRODUCTION\PPSU\Mobile\platforms\android\app\src\main\AndroidManifest.xml:14:3-29
		INJECTED from E:\02. DEVELOPMENT\04. PRODUCTION\PPSU\Mobile\platforms\android\app\src\main\AndroidManifest.xml
uses-permission#android.permission.READ_EXTERNAL_STORAGE
ADDED from E:\02. DEVELOPMENT\04. PRODUCTION\PPSU\Mobile\platforms\android\app\src\main\AndroidManifest.xml:17:2-76
	android:name
		ADDED from E:\02. DEVELOPMENT\04. PRODUCTION\PPSU\Mobile\platforms\android\app\src\main\AndroidManifest.xml:17:19-74
uses-permission#android.permission.WRITE_EXTERNAL_STORAGE
ADDED from E:\02. DEVELOPMENT\04. PRODUCTION\PPSU\Mobile\platforms\android\app\src\main\AndroidManifest.xml:18:2-77
	android:name
		ADDED from E:\02. DEVELOPMENT\04. PRODUCTION\PPSU\Mobile\platforms\android\app\src\main\AndroidManifest.xml:18:19-75
uses-permission#android.permission.INTERNET
ADDED from E:\02. DEVELOPMENT\04. PRODUCTION\PPSU\Mobile\platforms\android\app\src\main\AndroidManifest.xml:19:2-63
	android:name
		ADDED from E:\02. DEVELOPMENT\04. PRODUCTION\PPSU\Mobile\platforms\android\app\src\main\AndroidManifest.xml:19:19-61
application
ADDED from E:\02. DEVELOPMENT\04. PRODUCTION\PPSU\Mobile\platforms\android\app\src\main\AndroidManifest.xml:21:2-42:16
MERGED from [com.google.android.gms:play-services-location:11.4.0] C:\Users\Lunov\.gradle\caches\transforms-1\files-1.1\play-services-location-11.4.0.aar\1239d9135dafc6d171ca82d98d76c9f1\AndroidManifest.xml:4:5-19
MERGED from [com.google.android.gms:play-services-location:11.4.0] C:\Users\Lunov\.gradle\caches\transforms-1\files-1.1\play-services-location-11.4.0.aar\1239d9135dafc6d171ca82d98d76c9f1\AndroidManifest.xml:4:5-19
MERGED from [com.android.support:design:25.3.1] C:\Users\Lunov\.gradle\caches\transforms-1\files-1.1\design-25.3.1.aar\770d8e83e158fd3be41a0b661007e8f0\AndroidManifest.xml:29:5-20
MERGED from [com.android.support:design:25.3.1] C:\Users\Lunov\.gradle\caches\transforms-1\files-1.1\design-25.3.1.aar\770d8e83e158fd3be41a0b661007e8f0\AndroidManifest.xml:29:5-20
MERGED from [com.android.support:appcompat-v7:25.3.1] C:\Users\Lunov\.gradle\caches\transforms-1\files-1.1\appcompat-v7-25.3.1.aar\bfac1bd0826196c69983c78821098f97\AndroidManifest.xml:29:5-20
MERGED from [com.android.support:appcompat-v7:25.3.1] C:\Users\Lunov\.gradle\caches\transforms-1\files-1.1\appcompat-v7-25.3.1.aar\bfac1bd0826196c69983c78821098f97\AndroidManifest.xml:29:5-20
MERGED from [com.google.android.gms:play-services-base:11.4.0] C:\Users\Lunov\.gradle\caches\transforms-1\files-1.1\play-services-base-11.4.0.aar\3ef35a8197f524a78d4ac6972deb0419\AndroidManifest.xml:18:5-20:19
MERGED from [com.google.android.gms:play-services-base:11.4.0] C:\Users\Lunov\.gradle\caches\transforms-1\files-1.1\play-services-base-11.4.0.aar\3ef35a8197f524a78d4ac6972deb0419\AndroidManifest.xml:18:5-20:19
MERGED from [com.google.android.gms:play-services-tasks:11.4.0] C:\Users\Lunov\.gradle\caches\transforms-1\files-1.1\play-services-tasks-11.4.0.aar\4c2342436f57e02d5d038b912e196103\AndroidManifest.xml:4:5-19
MERGED from [com.google.android.gms:play-services-tasks:11.4.0] C:\Users\Lunov\.gradle\caches\transforms-1\files-1.1\play-services-tasks-11.4.0.aar\4c2342436f57e02d5d038b912e196103\AndroidManifest.xml:4:5-19
MERGED from [com.google.android.gms:play-services-basement:11.4.0] C:\Users\Lunov\.gradle\caches\transforms-1\files-1.1\play-services-basement-11.4.0.aar\f293b40cbfc3f850e727bb12c0de22c2\AndroidManifest.xml:19:5-21:19
MERGED from [com.google.android.gms:play-services-basement:11.4.0] C:\Users\Lunov\.gradle\caches\transforms-1\files-1.1\play-services-basement-11.4.0.aar\f293b40cbfc3f850e727bb12c0de22c2\AndroidManifest.xml:19:5-21:19
MERGED from [com.android.support:transition:25.3.1] C:\Users\Lunov\.gradle\caches\transforms-1\files-1.1\transition-25.3.1.aar\4bbc892fce75ce835682d87957a1af0c\AndroidManifest.xml:26:5-20
MERGED from [com.android.support:transition:25.3.1] C:\Users\Lunov\.gradle\caches\transforms-1\files-1.1\transition-25.3.1.aar\4bbc892fce75ce835682d87957a1af0c\AndroidManifest.xml:26:5-20
MERGED from [com.android.support:support-v4:25.3.1] C:\Users\Lunov\.gradle\caches\transforms-1\files-1.1\support-v4-25.3.1.aar\07434708b3f010b66b47fddfdc286a2a\AndroidManifest.xml:29:5-20
MERGED from [com.android.support:support-v4:25.3.1] C:\Users\Lunov\.gradle\caches\transforms-1\files-1.1\support-v4-25.3.1.aar\07434708b3f010b66b47fddfdc286a2a\AndroidManifest.xml:29:5-20
MERGED from [:widgets-release:] C:\Users\Lunov\.gradle\caches\transforms-1\files-1.1\widgets-release.aar\1ecc8373bfe8382671c22ff8e90ee658\AndroidManifest.xml:11:5-12:19
MERGED from [:widgets-release:] C:\Users\Lunov\.gradle\caches\transforms-1\files-1.1\widgets-release.aar\1ecc8373bfe8382671c22ff8e90ee658\AndroidManifest.xml:11:5-12:19
MERGED from [com.android.support:support-fragment:25.3.1] C:\Users\Lunov\.gradle\caches\transforms-1\files-1.1\support-fragment-25.3.1.aar\f83a19f5c6920d74b4184b3b7b2bdeff\AndroidManifest.xml:29:5-20
MERGED from [com.android.support:support-fragment:25.3.1] C:\Users\Lunov\.gradle\caches\transforms-1\files-1.1\support-fragment-25.3.1.aar\f83a19f5c6920d74b4184b3b7b2bdeff\AndroidManifest.xml:29:5-20
MERGED from [com.android.support:support-core-ui:25.3.1] C:\Users\Lunov\.gradle\caches\transforms-1\files-1.1\support-core-ui-25.3.1.aar\b7e0c8a7b889639b66bba9615a46e440\AndroidManifest.xml:29:5-20
MERGED from [com.android.support:support-core-ui:25.3.1] C:\Users\Lunov\.gradle\caches\transforms-1\files-1.1\support-core-ui-25.3.1.aar\b7e0c8a7b889639b66bba9615a46e440\AndroidManifest.xml:29:5-20
MERGED from [com.android.support:animated-vector-drawable:25.3.1] C:\Users\Lunov\.gradle\caches\transforms-1\files-1.1\animated-vector-drawable-25.3.1.aar\1f9b4a403f8f75441bbec701bdc0ea18\AndroidManifest.xml:26:5-20
MERGED from [com.android.support:animated-vector-drawable:25.3.1] C:\Users\Lunov\.gradle\caches\transforms-1\files-1.1\animated-vector-drawable-25.3.1.aar\1f9b4a403f8f75441bbec701bdc0ea18\AndroidManifest.xml:26:5-20
MERGED from [com.android.support:support-vector-drawable:25.3.1] C:\Users\Lunov\.gradle\caches\transforms-1\files-1.1\support-vector-drawable-25.3.1.aar\ba42d5b621d4428d12bd9fef62ddb8bf\AndroidManifest.xml:26:5-20
MERGED from [com.android.support:support-vector-drawable:25.3.1] C:\Users\Lunov\.gradle\caches\transforms-1\files-1.1\support-vector-drawable-25.3.1.aar\ba42d5b621d4428d12bd9fef62ddb8bf\AndroidManifest.xml:26:5-20
MERGED from [com.android.support:support-media-compat:25.3.1] C:\Users\Lunov\.gradle\caches\transforms-1\files-1.1\support-media-compat-25.3.1.aar\c502b4139eed9c05b4395325138d2e22\AndroidManifest.xml:29:5-20
MERGED from [com.android.support:support-media-compat:25.3.1] C:\Users\Lunov\.gradle\caches\transforms-1\files-1.1\support-media-compat-25.3.1.aar\c502b4139eed9c05b4395325138d2e22\AndroidManifest.xml:29:5-20
MERGED from [com.android.support:support-core-utils:25.3.1] C:\Users\Lunov\.gradle\caches\transforms-1\files-1.1\support-core-utils-25.3.1.aar\867d6280cfba4c64459a37a87e8994b8\AndroidManifest.xml:29:5-20
MERGED from [com.android.support:support-core-utils:25.3.1] C:\Users\Lunov\.gradle\caches\transforms-1\files-1.1\support-core-utils-25.3.1.aar\867d6280cfba4c64459a37a87e8994b8\AndroidManifest.xml:29:5-20
MERGED from [com.android.support:support-compat:25.3.1] C:\Users\Lunov\.gradle\caches\transforms-1\files-1.1\support-compat-25.3.1.aar\7dc240902131a15eab6b25d837a363af\AndroidManifest.xml:29:5-20
MERGED from [com.android.support:support-compat:25.3.1] C:\Users\Lunov\.gradle\caches\transforms-1\files-1.1\support-compat-25.3.1.aar\7dc240902131a15eab6b25d837a363af\AndroidManifest.xml:29:5-20
	android:label
		ADDED from E:\02. DEVELOPMENT\04. PRODUCTION\PPSU\Mobile\platforms\android\app\src\main\AndroidManifest.xml:25:3-35
	android:icon
		ADDED from E:\02. DEVELOPMENT\04. PRODUCTION\PPSU\Mobile\platforms\android\app\src\main\AndroidManifest.xml:24:3-32
	android:allowBackup
		ADDED from E:\02. DEVELOPMENT\04. PRODUCTION\PPSU\Mobile\platforms\android\app\src\main\AndroidManifest.xml:23:3-29
	android:theme
		ADDED from E:\02. DEVELOPMENT\04. PRODUCTION\PPSU\Mobile\platforms\android\app\src\main\AndroidManifest.xml:26:3-34
	android:name
		ADDED from E:\02. DEVELOPMENT\04. PRODUCTION\PPSU\Mobile\platforms\android\app\src\main\AndroidManifest.xml:22:3-49
activity#com.tns.NativeScriptActivity
ADDED from E:\02. DEVELOPMENT\04. PRODUCTION\PPSU\Mobile\platforms\android\app\src\main\AndroidManifest.xml:28:3-40:14
	android:label
		ADDED from E:\02. DEVELOPMENT\04. PRODUCTION\PPSU\Mobile\platforms\android\app\src\main\AndroidManifest.xml:30:4-49
	android:configChanges
		ADDED from E:\02. DEVELOPMENT\04. PRODUCTION\PPSU\Mobile\platforms\android\app\src\main\AndroidManifest.xml:31:4-65
	android:theme
		ADDED from E:\02. DEVELOPMENT\04. PRODUCTION\PPSU\Mobile\platforms\android\app\src\main\AndroidManifest.xml:32:4-44
	android:name
		ADDED from E:\02. DEVELOPMENT\04. PRODUCTION\PPSU\Mobile\platforms\android\app\src\main\AndroidManifest.xml:29:4-47
meta-data#SET_THEME_ON_LAUNCH
ADDED from E:\02. DEVELOPMENT\04. PRODUCTION\PPSU\Mobile\platforms\android\app\src\main\AndroidManifest.xml:34:4-87
	android:resource
		ADDED from E:\02. DEVELOPMENT\04. PRODUCTION\PPSU\Mobile\platforms\android\app\src\main\AndroidManifest.xml:34:50-84
	android:name
		ADDED from E:\02. DEVELOPMENT\04. PRODUCTION\PPSU\Mobile\platforms\android\app\src\main\AndroidManifest.xml:34:15-49
intent-filter#action:name:android.intent.action.MAIN+category:name:android.intent.category.LAUNCHER
ADDED from E:\02. DEVELOPMENT\04. PRODUCTION\PPSU\Mobile\platforms\android\app\src\main\AndroidManifest.xml:36:4-39:20
action#android.intent.action.MAIN
ADDED from E:\02. DEVELOPMENT\04. PRODUCTION\PPSU\Mobile\platforms\android\app\src\main\AndroidManifest.xml:37:5-57
	android:name
		ADDED from E:\02. DEVELOPMENT\04. PRODUCTION\PPSU\Mobile\platforms\android\app\src\main\AndroidManifest.xml:37:13-54
category#android.intent.category.LAUNCHER
ADDED from E:\02. DEVELOPMENT\04. PRODUCTION\PPSU\Mobile\platforms\android\app\src\main\AndroidManifest.xml:38:5-65
	android:name
		ADDED from E:\02. DEVELOPMENT\04. PRODUCTION\PPSU\Mobile\platforms\android\app\src\main\AndroidManifest.xml:38:15-62
activity#com.tns.ErrorReportActivity
ADDED from E:\02. DEVELOPMENT\04. PRODUCTION\PPSU\Mobile\platforms\android\app\src\main\AndroidManifest.xml:41:3-57
	android:name
		ADDED from E:\02. DEVELOPMENT\04. PRODUCTION\PPSU\Mobile\platforms\android\app\src\main\AndroidManifest.xml:41:13-55
meta-data#android.support.VERSION
ADDED from [com.android.support:design:25.3.1] C:\Users\Lunov\.gradle\caches\transforms-1\files-1.1\design-25.3.1.aar\770d8e83e158fd3be41a0b661007e8f0\AndroidManifest.xml:25:5-27:34
MERGED from [com.android.support:appcompat-v7:25.3.1] C:\Users\Lunov\.gradle\caches\transforms-1\files-1.1\appcompat-v7-25.3.1.aar\bfac1bd0826196c69983c78821098f97\AndroidManifest.xml:25:5-27:34
MERGED from [com.android.support:appcompat-v7:25.3.1] C:\Users\Lunov\.gradle\caches\transforms-1\files-1.1\appcompat-v7-25.3.1.aar\bfac1bd0826196c69983c78821098f97\AndroidManifest.xml:25:5-27:34
MERGED from [com.android.support:transition:25.3.1] C:\Users\Lunov\.gradle\caches\transforms-1\files-1.1\transition-25.3.1.aar\4bbc892fce75ce835682d87957a1af0c\AndroidManifest.xml:22:5-24:34
MERGED from [com.android.support:transition:25.3.1] C:\Users\Lunov\.gradle\caches\transforms-1\files-1.1\transition-25.3.1.aar\4bbc892fce75ce835682d87957a1af0c\AndroidManifest.xml:22:5-24:34
MERGED from [com.android.support:support-v4:25.3.1] C:\Users\Lunov\.gradle\caches\transforms-1\files-1.1\support-v4-25.3.1.aar\07434708b3f010b66b47fddfdc286a2a\AndroidManifest.xml:25:5-27:34
MERGED from [com.android.support:support-v4:25.3.1] C:\Users\Lunov\.gradle\caches\transforms-1\files-1.1\support-v4-25.3.1.aar\07434708b3f010b66b47fddfdc286a2a\AndroidManifest.xml:25:5-27:34
MERGED from [com.android.support:recyclerview-v7:25.3.1] C:\Users\Lunov\.gradle\caches\transforms-1\files-1.1\recyclerview-v7-25.3.1.aar\7b5386278ef01a35facb59d1ab2cc29d\AndroidManifest.xml:22:5-24:34
MERGED from [com.android.support:recyclerview-v7:25.3.1] C:\Users\Lunov\.gradle\caches\transforms-1\files-1.1\recyclerview-v7-25.3.1.aar\7b5386278ef01a35facb59d1ab2cc29d\AndroidManifest.xml:22:5-24:34
MERGED from [com.android.support:support-fragment:25.3.1] C:\Users\Lunov\.gradle\caches\transforms-1\files-1.1\support-fragment-25.3.1.aar\f83a19f5c6920d74b4184b3b7b2bdeff\AndroidManifest.xml:25:5-27:34
MERGED from [com.android.support:support-fragment:25.3.1] C:\Users\Lunov\.gradle\caches\transforms-1\files-1.1\support-fragment-25.3.1.aar\f83a19f5c6920d74b4184b3b7b2bdeff\AndroidManifest.xml:25:5-27:34
MERGED from [com.android.support:support-core-ui:25.3.1] C:\Users\Lunov\.gradle\caches\transforms-1\files-1.1\support-core-ui-25.3.1.aar\b7e0c8a7b889639b66bba9615a46e440\AndroidManifest.xml:25:5-27:34
MERGED from [com.android.support:support-core-ui:25.3.1] C:\Users\Lunov\.gradle\caches\transforms-1\files-1.1\support-core-ui-25.3.1.aar\b7e0c8a7b889639b66bba9615a46e440\AndroidManifest.xml:25:5-27:34
MERGED from [com.android.support:animated-vector-drawable:25.3.1] C:\Users\Lunov\.gradle\caches\transforms-1\files-1.1\animated-vector-drawable-25.3.1.aar\1f9b4a403f8f75441bbec701bdc0ea18\AndroidManifest.xml:22:5-24:34
MERGED from [com.android.support:animated-vector-drawable:25.3.1] C:\Users\Lunov\.gradle\caches\transforms-1\files-1.1\animated-vector-drawable-25.3.1.aar\1f9b4a403f8f75441bbec701bdc0ea18\AndroidManifest.xml:22:5-24:34
MERGED from [com.android.support:support-vector-drawable:25.3.1] C:\Users\Lunov\.gradle\caches\transforms-1\files-1.1\support-vector-drawable-25.3.1.aar\ba42d5b621d4428d12bd9fef62ddb8bf\AndroidManifest.xml:22:5-24:34
MERGED from [com.android.support:support-vector-drawable:25.3.1] C:\Users\Lunov\.gradle\caches\transforms-1\files-1.1\support-vector-drawable-25.3.1.aar\ba42d5b621d4428d12bd9fef62ddb8bf\AndroidManifest.xml:22:5-24:34
MERGED from [com.android.support:support-media-compat:25.3.1] C:\Users\Lunov\.gradle\caches\transforms-1\files-1.1\support-media-compat-25.3.1.aar\c502b4139eed9c05b4395325138d2e22\AndroidManifest.xml:25:5-27:34
MERGED from [com.android.support:support-media-compat:25.3.1] C:\Users\Lunov\.gradle\caches\transforms-1\files-1.1\support-media-compat-25.3.1.aar\c502b4139eed9c05b4395325138d2e22\AndroidManifest.xml:25:5-27:34
MERGED from [com.android.support:support-core-utils:25.3.1] C:\Users\Lunov\.gradle\caches\transforms-1\files-1.1\support-core-utils-25.3.1.aar\867d6280cfba4c64459a37a87e8994b8\AndroidManifest.xml:25:5-27:34
MERGED from [com.android.support:support-core-utils:25.3.1] C:\Users\Lunov\.gradle\caches\transforms-1\files-1.1\support-core-utils-25.3.1.aar\867d6280cfba4c64459a37a87e8994b8\AndroidManifest.xml:25:5-27:34
MERGED from [com.android.support:support-compat:25.3.1] C:\Users\Lunov\.gradle\caches\transforms-1\files-1.1\support-compat-25.3.1.aar\7dc240902131a15eab6b25d837a363af\AndroidManifest.xml:25:5-27:34
MERGED from [com.android.support:support-compat:25.3.1] C:\Users\Lunov\.gradle\caches\transforms-1\files-1.1\support-compat-25.3.1.aar\7dc240902131a15eab6b25d837a363af\AndroidManifest.xml:25:5-27:34
	android:value
		ADDED from [com.android.support:design:25.3.1] C:\Users\Lunov\.gradle\caches\transforms-1\files-1.1\design-25.3.1.aar\770d8e83e158fd3be41a0b661007e8f0\AndroidManifest.xml:27:9-31
	android:name
		ADDED from [com.android.support:design:25.3.1] C:\Users\Lunov\.gradle\caches\transforms-1\files-1.1\design-25.3.1.aar\770d8e83e158fd3be41a0b661007e8f0\AndroidManifest.xml:26:9-47
activity#com.google.android.gms.common.api.GoogleApiActivity
ADDED from [com.google.android.gms:play-services-base:11.4.0] C:\Users\Lunov\.gradle\caches\transforms-1\files-1.1\play-services-base-11.4.0.aar\3ef35a8197f524a78d4ac6972deb0419\AndroidManifest.xml:19:9-172
	android:exported
		ADDED from [com.google.android.gms:play-services-base:11.4.0] C:\Users\Lunov\.gradle\caches\transforms-1\files-1.1\play-services-base-11.4.0.aar\3ef35a8197f524a78d4ac6972deb0419\AndroidManifest.xml:19:146-170
	android:theme
		ADDED from [com.google.android.gms:play-services-base:11.4.0] C:\Users\Lunov\.gradle\caches\transforms-1\files-1.1\play-services-base-11.4.0.aar\3ef35a8197f524a78d4ac6972deb0419\AndroidManifest.xml:19:86-145
	android:name
		ADDED from [com.google.android.gms:play-services-base:11.4.0] C:\Users\Lunov\.gradle\caches\transforms-1\files-1.1\play-services-base-11.4.0.aar\3ef35a8197f524a78d4ac6972deb0419\AndroidManifest.xml:19:19-85
meta-data#com.google.android.gms.version
ADDED from [com.google.android.gms:play-services-basement:11.4.0] C:\Users\Lunov\.gradle\caches\transforms-1\files-1.1\play-services-basement-11.4.0.aar\f293b40cbfc3f850e727bb12c0de22c2\AndroidManifest.xml:20:9-121
	android:value
		ADDED from [com.google.android.gms:play-services-basement:11.4.0] C:\Users\Lunov\.gradle\caches\transforms-1\files-1.1\play-services-basement-11.4.0.aar\f293b40cbfc3f850e727bb12c0de22c2\AndroidManifest.xml:20:66-119
	android:name
		ADDED from [com.google.android.gms:play-services-basement:11.4.0] C:\Users\Lunov\.gradle\caches\transforms-1\files-1.1\play-services-basement-11.4.0.aar\f293b40cbfc3f850e727bb12c0de22c2\AndroidManifest.xml:20:20-65
uses-permission#android.permission.ACCESS_FINE_LOCATION
ADDED from [:nativescript_geolocation:] C:\Users\Lunov\.gradle\caches\transforms-1\files-1.1\nativescript_geolocation.aar\37c4ad5034be7c7ed672fbe69098149b\AndroidManifest.xml:9:5-79
	android:name
		ADDED from [:nativescript_geolocation:] C:\Users\Lunov\.gradle\caches\transforms-1\files-1.1\nativescript_geolocation.aar\37c4ad5034be7c7ed672fbe69098149b\AndroidManifest.xml:9:22-76
